government = tribal
add_government_reform = monstrous_horde
government_rank = 2
primary_culture = hill_gnoll
religion = xhazobkult
technology_group = tech_gnollish
national_focus = DIP
capital = 377

1440.6.3 = {
	monarch = {
		name = "Gorgurr V"
		dynasty = "King-of-the-Hill"
		birth_date = 1431.9.7
		adm = 0
		dip = 0
		mil = 2
	}
}